Sharing biodiversity data with galaxias
…
 In this case, each event is a 5-minute audio survey for calling frogs. Frogs are recorded as present or absent (i.e. no abundance data)

Events

Add an eventID field

obs <- obs |>
  select(site_code, year, any_of(spp$abbreviation)) |>
  use_events(eventID = composite_id(sequential_id(),
                                    site_code,
                                    year)) |>
  relocate(eventID, .before = 1)
print(obs, n = 5)

# A tibble: 3,633 × 11
  eventID     site_code  year  cpar  csig limdum limper limtas  lper  lver  ulae
  <chr>       <chr>     <dbl> <dbl> <dbl>  <dbl>  <dbl>  <dbl> <dbl> <dbl> <dbl>
1 00001-AMA1… AMA100     2004     1     0      0      0      1     1     0     0
2 00002-AMA1… AMA100     2007     1     0      1      0      1     0     0     0
3 00003-AMA1… AMA100     2007     1     0      1      0      1     0     0     0
4 00004-AMA1… AMA100     2005     1     1      1      0      1     0     0     0
5 00005-AMA1… AMA100     2008     1     0      1      0      0     1     0     0
# ℹ 3,628 more rows
Events

Add spatial fields

obs <- obs |>
  left_join(select(sites, site_code, latitude, longitude),
            by = "site_code") |>
  use_coordinates(latitude, 
                  longitude,
                  geodeticDatum = "WGS84",
                  coordinateUncertaintyInMeters = 30) |>
  relocate(decimalLatitude, decimalLongitude, .after = eventID) 
print(obs, n = 5)

# A tibble: 3,633 × 15
  eventID    decimalLatitude decimalLongitude site_code  year  cpar  csig limdum
  <chr>                <dbl>            <dbl> <chr>     <dbl> <dbl> <dbl>  <dbl>
1 00001-AMA…           -35.2             149. AMA100     2004     1     0      0
2 00002-AMA…           -35.2             149. AMA100     2007     1     0      1
3 00003-AMA…           -35.2             149. AMA100     2007     1     0      1
4 00004-AMA…           -35.2             149. AMA100     2005     1     1      1
5 00005-AMA…           -35.2             149. AMA100     2008     1     0      1
# ℹ 3,628 more rows
# ℹ 7 more variables: limper <dbl>, limtas <dbl>, lper <dbl>, lver <dbl>,
#   ulae <dbl>, coordinateUncertaintyInMeters <dbl>, geodeticDatum <chr>
…
Occurrences

Restructure to long-form

obs_long <-  obs |>
  select(eventID, any_of(spp$abbreviation)) |>
  pivot_longer(cols = spp$abbreviation,
               names_to = "abbreviation") |>
  left_join(spp, by = "abbreviation") |>
  select(-abbreviation) |>
  relocate(value, .after = last_col())

print(obs_long, n = 5)

# A tibble: 29,064 × 4
  eventID           scientific_name            common_name            value
  <chr>             <chr>                      <chr>                  <dbl>
1 00001-AMA100-2004 Crinia parinsignifera      Plains Froglet             1
2 00001-AMA100-2004 Crinia signifera           Common Eastern Froglet     0
3 00001-AMA100-2004 Limnodynastes dumerilii    Pobblebonk                 0
4 00001-AMA100-2004 Limnodynastes peronii      Striped Marsh Frog         0
5 00001-AMA100-2004 Limnodynastes tasmaniensis Spotted Grass Frog         1
# ℹ 29,059 more rows
…
Occurrences

Optional: Join taxonomy

obs_long <- obs_long |>
 left_join(select(taxa, -search_term, -species, -vernacular_name, -issues, -match_type),
           by = "scientific_name")

print(obs_long, n = 5)

# A tibble: 29,064 × 13
  eventID           scientific_name     common_name value scientific_name_auth…¹
  <chr>             <chr>               <chr>       <dbl> <chr>                 
1 00001-AMA100-2004 Crinia parinsignif… Plains Fro…     1 Main, 1957            
2 00001-AMA100-2004 Crinia signifera    Common Eas…     0 Girard, 1853          
3 00001-AMA100-2004 Limnodynastes dume… Pobblebonk      0 Peters, 1863          
4 00001-AMA100-2004 Limnodynastes pero… Striped Ma…     0 (Duméril & Bibron, 18…
5 00001-AMA100-2004 Limnodynastes tasm… Spotted Gr…     1 Günther, 1858         
# ℹ 29,059 more rows
# ℹ abbreviated name: ¹​scientific_name_authorship
# ℹ 8 more variables: taxon_concept_id <chr>, rank <chr>, kingdom <chr>,
#   phylum <chr>, class <chr>, order <chr>, family <chr>, genus <chr>
…
